샘플 웹 사이트: 캡스톤 프로젝트
…
[1] 38.62717433  0.09819337  0.09802429  0.10374254  0.10293525
[6]  0.08909183  0.07118032  0.07680259  0.07187277

which.min(alpha)

[1] 7

Top beta 단어의 시각화

prob <- tidytext::tidy(models[[9]], matrix = "beta")
prob

# A tibble: 1,570 × 3
   topic term       beta
   <int> <chr>     <dbl>
 1     1 명    1.12e-138
 2     2 명    5.90e-  2
 3     3 명    3.64e- 32
 4     4 명    2.27e- 26
 5     5 명    3.24e- 77
 6     6 명    4.58e- 39
 7     7 명    8.53e- 31
 8     8 명    3.19e-191
 9     9 명    2.96e- 62
10    10 명    2.77e- 43
# … with 1,560 more rows

top_prob <- prob %>% 
  group_by(topic) %>% 
  top_n(10, beta) %>% 
  ungroup() %>% 
  arrange(topic, -beta)
top_prob

# A tibble: 102 × 3
   topic term         beta
   <int> <chr>       <dbl>
 1     1 분         0.154 
 2     1 전반       0.104 
 3     1 에르난데스 0.0913
 4     1 선제골     0.0782
 5     1 러시아     0.0665
 6     1 테         0.0652
 7     1 이         0.0652
 8     1 승리       0.0650
 9     1 후반       0.0522
10     1 골         0.0415
# … with 92 more rows
…
문서에서의 토픽의 비중

news_gamma <- tidytext::tidy(models[[9]], matrix = "gamma") %>% 
  mutate(gamma = gamma * 100)

news_gamma

# A tibble: 10,000 × 3
   document topic gamma
   <chr>    <int> <dbl>
 1 75           1  1.93
 2 174          1  1.93
 3 273          1  1.93
 4 372          1  1.93
 5 471          1  1.93
 6 570          1  1.93
 7 669          1  1.93
 8 768          1  1.93
 9 867          1  1.93
10 966          1  1.93
# … with 9,990 more rows
토픽이 포함된 문서 조회

#토픽1의 주요 단어
terms(models[[9]], 10)[, 1]

 [1] "분"         "전반"       "에르난데스" "선제골"     "러시아"    
 [6] "테"         "이"         "승리"       "후반"       "골"        

#토픽 1이 95% 이상 포함된 문서 조회
news_gamma %>%
  filter(topic == 1) %>%
  filter(gamma >= 95) %>%
  arrange(desc(gamma))

# A tibble: 30 × 3
   document topic gamma
   <chr>    <int> <dbl>
 1 33           1  96.1
 2 132          1  96.1
 3 231          1  96.1
 4 330          1  96.1
 5 429          1  96.1
 6 529          1  96.1
 7 628          1  96.1
 8 727          1  96.1
 9 826          1  96.1
10 925          1  96.1
# … with 20 more rows
…
모델의 이해

library(broom)

coefs_tf <- classifier_tf$glmnet.fit %>%
  tidy() %>%
  filter(lambda == classifier_tf$lambda.1se)
coefs_tf 

# A tibble: 83 × 5
   term         step  estimate  lambda dev.ratio
   <chr>       <dbl>     <dbl>   <dbl>     <dbl>
 1 (Intercept)    74 -2.57e+ 0 0.00686     0.937
 2 감동           74 -1.25e+ 0 0.00686     0.937
 3 결국           74 -1.00e- 1 0.00686     0.937
 4 관중석         74 -9.92e- 1 0.00686     0.937
 5 류             74 -1.20e- 2 0.00686     0.937
 6 예고           74 -1.15e- 2 0.00686     0.937
 7 예지           74 -3.45e-15 0.00686     0.937
 8 툽             74 -1.19e- 1 0.00686     0.937
 9 포착           74 -1.61e- 2 0.00686     0.937
10 현재           74 -3.27e- 3 0.00686     0.937
# … with 73 more rows
…
